{"data":{"paginationMeta":{"currentPage":1,"currentPageSize":40,"totalPages":6,"totalRecords":217},"last_update":"Apr, 23 2020, 18:21, UTC","rows":[{"country":"World","country_abbreviation":"","total_cases":"2,697,316","new_cases":"61,600","total_deaths":"188,857","new_deaths":"4,791","total_recovered":"739,945","active_cases":"1,768,514","serious_critical":"58,020","cases_per_mill_pop":"346.0","flag":"https://upload.wikimedia.org/wikipedia/commons/thumb/e/ef/International_Flag_of_Planet_Earth.svg/800px-International_Flag_of_Planet_Earth.svg.png"},{"country":"USA","country_abbreviation":"US","total_cases":"866,148","new_cases":"17,431","total_deaths":"48,868","new_deaths":"1,209","total_recovered":"84,812","active_cases":"732,468","serious_critical":"14,344","cases_per_mill_pop":"2,617.0","flag":"https://www.worldometers.info/img/flags/us-flag.gif"},{"country":"Spain","country_abbreviation":"ES","total_cases":"213,024","new_cases":"4,635","total_deaths":"22,157","new_deaths":"440","total_recovered":"89,250","active_cases":"101,617","serious_critical":"7,705","cases_per_mill_pop":"4,556.0","flag":"https://www.worldometers.info/img/flags/sp-flag.gif"},{"country":"Italy","country_abbreviation":"IT","total_cases":"189,973","new_cases":"2,646","total_deaths":"25,549","new_deaths":"464","total_recovered":"57,576","active_cases":"106,848","serious_critical":"2,267","cases_per_mill_pop":"3,142.0","flag":"https://www.worldometers.info/img/flags/it-flag.gif"},{"country":"France","country_abbreviation":"FR","total_cases":"161,530","new_cases":"1,653","total_deaths":"21,856","new_deaths":"516","total_recovered":"42,088","active_cases":"97,586","serious_critical":"5,053","cases_per_mill_pop":"2,475.0","flag":"https://www.worldometers.info/img/flags/fr-flag.gif"},{"country":"Germany","country_abbreviation":"DE","total_cases":"151,285","new_cases":"637","total_deaths":"5,367","new_deaths":"52","total_recovered":"103,300","active_cases":"42,618","serious_critical":"2,908","cases_per_mill_pop":"1,806.0","flag":"https://www.worldometers.info/img/flags/gm-flag.gif"},{"country":"UK","country_abbreviation":"GB","total_cases":"138,078","new_cases":"4,583","total_deaths":"18,738","new_deaths":"638","total_recovered":"N/A","active_cases":"118,996","serious_critical":"1,559","cases_per_mill_pop":"2,034.0","flag":"https://www.worldometers.info/img/flags/uk-flag.gif"},{"country":"Turkey","country_abbreviation":"TR","total_cases":"101,790","new_cases":"3,116","total_deaths":"2,491","new_deaths":"115","total_recovered":"18,491","active_cases":"80,808","serious_critical":"1,816","cases_per_mill_pop":"1,207.0","flag":"https://www.worldometers.info/img/flags/tu-flag.gif"},{"country":"Iran","country_abbreviation":"IR","total_cases":"87,026","new_cases":"1,030","total_deaths":"5,481","new_deaths":"90","total_recovered":"64,843","active_cases":"16,702","serious_critical":"3,105","cases_per_mill_pop":"1,036.0","flag":"https://www.worldometers.info/img/flags/ir-flag.gif"},{"country":"China","country_abbreviation":"CN","total_cases":"82,798","new_cases":"10","total_deaths":"4,632","new_deaths":"0","total_recovered":"77,207","active_cases":"959","serious_critical":"63","cases_per_mill_pop":"58.0","flag":"https://www.worldometers.info/img/flags/ch-flag.gif"},{"country":"Russia","country_abbreviation":"RU","total_cases":"62,773","new_cases":"4,774","total_deaths":"555","new_deaths":"42","total_recovered":"4,891","active_cases":"57,327","serious_critical":"2,300","cases_per_mill_pop":"430.0","flag":"https://www.worldometers.info/img/flags/rs-flag.gif"},{"country":"Brazil","country_abbreviation":"BR","total_cases":"46,701","new_cases":"944","total_deaths":"2,940","new_deaths":"34","total_recovered":"25,318","active_cases":"18,443","serious_critical":"8,318","cases_per_mill_pop":"220.0","flag":"https://www.worldometers.info/img/flags/br-flag.gif"},{"country":"Belgium","country_abbreviation":"BE","total_cases":"42,797","new_cases":"908","total_deaths":"6,490","new_deaths":"228","total_recovered":"9,800","active_cases":"26,507","serious_critical":"993","cases_per_mill_pop":"3,693.0","flag":"https://www.worldometers.info/img/flags/be-flag.gif"},{"country":"Canada","country_abbreviation":"CA","total_cases":"41,791","new_cases":"1,601","total_deaths":"2,141","new_deaths":"167","total_recovered":"13,986","active_cases":"25,664","serious_critical":"557","cases_per_mill_pop":"1,107.0","flag":"https://www.worldometers.info/img/flags/ca-flag.gif"},{"country":"Netherlands","country_abbreviation":"NL","total_cases":"35,729","new_cases":"887","total_deaths":"4,177","new_deaths":"123","total_recovered":"N/A","active_cases":"31,302","serious_critical":"1,008","cases_per_mill_pop":"2,085.0","flag":"https://www.worldometers.info/img/flags/nl-flag.gif"},{"country":"Switzerland","country_abbreviation":"CH","total_cases":"28,496","new_cases":"228","total_deaths":"1,549","new_deaths":"40","total_recovered":"19,900","active_cases":"7,047","serious_critical":"386","cases_per_mill_pop":"3,293.0","flag":"https://www.worldometers.info/img/flags/sz-flag.gif"},{"country":"Portugal","country_abbreviation":"PT","total_cases":"22,353","new_cases":"371","total_deaths":"820","new_deaths":"35","total_recovered":"1,201","active_cases":"20,332","serious_critical":"204","cases_per_mill_pop":"2,192.0","flag":"https://www.worldometers.info/img/flags/po-flag.gif"},{"country":"India","country_abbreviation":"IN","total_cases":"21,797","new_cases":"427","total_deaths":"686","new_deaths":"5","total_recovered":"4,376","active_cases":"16,735","serious_critical":"0","cases_per_mill_pop":"16.0","flag":"https://www.worldometers.info/img/flags/in-flag.gif"},{"country":"Peru","country_abbreviation":"PE","total_cases":"20,914","new_cases":"1,664","total_deaths":"572","new_deaths":"42","total_recovered":"7,027","active_cases":"13,315","serious_critical":"396","cases_per_mill_pop":"634.0","flag":"https://www.worldometers.info/img/flags/pe-flag.gif"},{"country":"Sweden","country_abbreviation":"SE","total_cases":"16,755","new_cases":"751","total_deaths":"2,021","new_deaths":"84","total_recovered":"550","active_cases":"14,184","serious_critical":"533","cases_per_mill_pop":"1,659.0","flag":"https://www.worldometers.info/img/flags/sw-flag.gif"},{"country":"Ireland","country_abbreviation":"IE","total_cases":"16,671","new_cases":"0","total_deaths":"794","new_deaths":"25","total_recovered":"9,233","active_cases":"6,644","serious_critical":"147","cases_per_mill_pop":"3,376.0","flag":"https://www.worldometers.info/img/flags/ei-flag.gif"},{"country":"Austria","country_abbreviation":"AT","total_cases":"15,002","new_cases":"77","total_deaths":"522","new_deaths":"12","total_recovered":"11,694","active_cases":"2,786","serious_critical":"169","cases_per_mill_pop":"1,666.0","flag":"https://www.worldometers.info/img/flags/au-flag.gif"},{"country":"Israel","country_abbreviation":"IL","total_cases":"14,592","new_cases":"94","total_deaths":"191","new_deaths":"2","total_recovered":"5,334","active_cases":"9,067","serious_critical":"136","cases_per_mill_pop":"1,686.0","flag":"https://www.worldometers.info/img/flags/is-flag.gif"},{"country":"Saudi Arabia","country_abbreviation":"SA","total_cases":"13,930","new_cases":"1,158","total_deaths":"121","new_deaths":"7","total_recovered":"1,925","active_cases":"11,884","serious_critical":"93","cases_per_mill_pop":"400.0","flag":"https://www.worldometers.info/img/flags/sa-flag.gif"},{"country":"Japan","country_abbreviation":"JP","total_cases":"11,950","new_cases":"0","total_deaths":"299","new_deaths":"0","total_recovered":"1,424","active_cases":"10,227","serious_critical":"241","cases_per_mill_pop":"94.0","flag":"https://www.worldometers.info/img/flags/ja-flag.gif"},{"country":"Chile","country_abbreviation":"CL","total_cases":"11,812","new_cases":"516","total_deaths":"168","new_deaths":"8","total_recovered":"5,804","active_cases":"5,840","serious_critical":"411","cases_per_mill_pop":"618.0","flag":"https://www.worldometers.info/img/flags/ci-flag.gif"},{"country":"Ecuador","country_abbreviation":"EC","total_cases":"11,183","new_cases":"333","total_deaths":"560","new_deaths":"23","total_recovered":"1,328","active_cases":"9,295","serious_critical":"141","cases_per_mill_pop":"634.0","flag":"https://www.worldometers.info/img/flags/ec-flag.gif"},{"country":"Singapore","country_abbreviation":"SG","total_cases":"11,178","new_cases":"1,037","total_deaths":"12","new_deaths":"0","total_recovered":"924","active_cases":"10,242","serious_critical":"26","cases_per_mill_pop":"1,911.0","flag":"https://www.worldometers.info/img/flags/sn-flag.gif"},{"country":"Pakistan","country_abbreviation":"PK","total_cases":"10,880","new_cases":"804","total_deaths":"228","new_deaths":"16","total_recovered":"2,337","active_cases":"8,315","serious_critical":"60","cases_per_mill_pop":"49.0","flag":"https://www.worldometers.info/img/flags/pk-flag.gif"},{"country":"S. Korea","country_abbreviation":"KR","total_cases":"10,702","new_cases":"8","total_deaths":"240","new_deaths":"2","total_recovered":"8,411","active_cases":"2,051","serious_critical":"55","cases_per_mill_pop":"209.0","flag":"https://www.worldometers.info/img/flags/ks-flag.gif"},{"country":"Mexico","country_abbreviation":"MX","total_cases":"10,544","new_cases":"1,043","total_deaths":"970","new_deaths":"113","total_recovered":"2,627","active_cases":"6,947","serious_critical":"378","cases_per_mill_pop":"82.0","flag":"https://www.worldometers.info/img/flags/mx-flag.gif"},{"country":"Poland","country_abbreviation":"PL","total_cases":"10,511","new_cases":"342","total_deaths":"454","new_deaths":"28","total_recovered":"1,740","active_cases":"8,317","serious_critical":"160","cases_per_mill_pop":"278.0","flag":"https://www.worldometers.info/img/flags/pl-flag.gif"},{"country":"Romania","country_abbreviation":"RO","total_cases":"10,096","new_cases":"386","total_deaths":"545","new_deaths":"21","total_recovered":"2,478","active_cases":"7,073","serious_critical":"236","cases_per_mill_pop":"525.0","flag":"https://www.worldometers.info/img/flags/ro-flag.gif"},{"country":"UAE","country_abbreviation":"AE","total_cases":"8,756","new_cases":"518","total_deaths":"56","new_deaths":"4","total_recovered":"1,637","active_cases":"7,063","serious_critical":"1","cases_per_mill_pop":"885.0","flag":"https://www.worldometers.info/img/flags/ae-flag.gif"},{"country":"Denmark","country_abbreviation":"DK","total_cases":"8,073","new_cases":"161","total_deaths":"394","new_deaths":"10","total_recovered":"5,384","active_cases":"2,295","serious_critical":"74","cases_per_mill_pop":"1,394.0","flag":"https://www.worldometers.info/img/flags/da-flag.gif"},{"country":"Belarus","country_abbreviation":"BY","total_cases":"8,022","new_cases":"741","total_deaths":"60","new_deaths":"2","total_recovered":"938","active_cases":"7,024","serious_critical":"92","cases_per_mill_pop":"849.0","flag":"https://www.worldometers.info/img/flags/bo-flag.gif"},{"country":"Indonesia","country_abbreviation":"ID","total_cases":"7,775","new_cases":"357","total_deaths":"647","new_deaths":"12","total_recovered":"960","active_cases":"6,168","serious_critical":"0","cases_per_mill_pop":"28.0","flag":"https://www.worldometers.info/img/flags/id-flag.gif"},{"country":"Qatar","country_abbreviation":"QA","total_cases":"7,764","new_cases":"623","total_deaths":"10","new_deaths":"0","total_recovered":"750","active_cases":"7,004","serious_critical":"72","cases_per_mill_pop":"2,695.0","flag":"https://www.worldometers.info/img/flags/qa-flag.gif"},{"country":"Norway","country_abbreviation":"NO","total_cases":"7,361","new_cases":"23","total_deaths":"193","new_deaths":"6","total_recovered":"32","active_cases":"7,136","serious_critical":"50","cases_per_mill_pop":"1,358.0","flag":"https://www.worldometers.info/img/flags/no-flag.gif"},{"country":"Serbia","country_abbreviation":"RS","total_cases":"7,276","new_cases":"162","total_deaths":"139","new_deaths":"5","total_recovered":"1,063","active_cases":"6,074","serious_critical":"96","cases_per_mill_pop":"833.0","flag":"https://www.worldometers.info/img/flags/ri-flag.gif"}]},"status":"success"}